memory_initialization_radix = 2;
memory_initialization_vector = 
000001101001111011
000001101000110100
000001100111101010
000001100110100000
000001100101010100
000001100100000111
000001100010111001
000001100001101010
000001100000011001
000001011111001000
000001011101110101
000001011100100001
000001011011001100
000001011001110110
000001011000100000
000001010111001000
000001010101101111
000001010100010101
000001010010111011
000001010001100000
000001010000000011
000001001110100110
000001001101001001
000001001011101010
000001001010001011
000001001000101100
000001000111001011
000001000101101010
000001000100001001
000001000010100111
000001000001000100
000000111111100001
000000111101111110
000000111100011010
000000111010110110
000000111001010001
000000110111101100
000000110110000111
000000110100100001
000000110010111100
000000110001010110
000000101111101111
000000101110001001
000000101100100011
000000101010111100
000000101001010110
000000100111101111
000000100110001000
000000100100100010
000000100010111011
000000100001010101
000000011111101110
000000011110001000
000000011100100010
000000011010111100
000000011001010110
000000010111110001
000000010110001011
000000010100100110
000000010011000010
000000010001011101
000000001111111001
000000001110010110
000000001100110011
000000001011010000
000000001001101101
000000001000001100
000000000110101010
000000000101001010
000000000011101001
000000000010001010
000000000000101011
111111111111001100
111111111101101110
111111111100010001
111111111010110101
111111111001011001
111111110111111110
111111110110100011
111111110101001010
111111110011110001
111111110010011001
111111110001000010
111111101111101011
111111101110010110
111111101101000001
111111101011101110
111111101010011011
111111101001001001
111111100111111000
111111100110101000
111111100101011001
111111100100001011
111111100010111110
111111100001110001
111111100000100110
111111011111011100
111111011110010011
111111011101001100
111111011100000101
111111011010111111
111111011001111010
111111011000110111
111111010111110101
111111010110110011
111111010101110011
111111010100110100
111111010011110110
111111010010111010
111111010001111110
111111010001000100
111111010000001011
111111001111010011
111111001110011101
111111001101100111
111111001100110011
111111001100000000
111111001011001111
111111001010011110
111111001001101111
111111001001000001
111111001000010100
111111000111101001
111111000110111111
111111000110010110
111111000101101110
111111000101001000
111111000100100011
111111000011111111
111111000011011101
111111000010111011
111111000010011011
111111000001111101
111111000001011111
111111000001000011
111111000000101000
111111000000001111
111110111111110111
111110111111100000
111110111111001010
111110111110110101
111110111110100010
111110111110010000
111110111110000000
111110111101110000
111110111101100010
111110111101010101
111110111101001010
111110111100111111
111110111100110110
111110111100101110
111110111100100111
111110111100100010
111110111100011110
111110111100011010
111110111100011001
111110111100011000
111110111100011000
111110111100011010
111110111100011101
111110111100100001
111110111100100110
111110111100101100
111110111100110011
111110111100111100
111110111101000101
111110111101010000
111110111101011100
111110111101101001
111110111101110111
111110111110000110
111110111110010110
111110111110100111
111110111110111001
111110111111001100
111110111111100000
111110111111110101
111111000000001011
111111000000100010
111111000000111010
111111000001010011
111111000001101101
111111000010000111
111111000010100011
111111000011000000
111111000011011101
111111000011111011
111111000100011010
111111000100111010
111111000101011011
111111000101111100
111111000110011111
111111000111000010
111111000111100101
111111001000001010
111111001000101111
111111001001010101
111111001001111100
111111001010100011
111111001011001011
111111001011110100
111111001100011101
111111001101000111
111111001101110010
111111001110011101
111111001111001000
111111001111110101
111111010000100001
111111010001001111
111111010001111100
111111010010101011
111111010011011001
111111010100001001
111111010100111000
111111010101101000
111111010110011001
111111010111001010
111111010111111011
111111011000101100
111111011001011110
111111011010010001
111111011011000011
111111011011110110
111111011100101001
111111011101011101
111111011110010000
111111011111000100
111111011111111000
111111100000101100
111111100001100001
111111100010010110
111111100011001010
111111100011111111
111111100100110100
111111100101101010
111111100110011111
111111100111010100
111111101000001010
111111101000111111
111111101001110101
111111101010101010
111111101011100000
111111101100010101
111111101101001011
111111101110000000
111111101110110101
111111101111101011
111111110000100000
111111110001010101
111111110010001010
111111110010111111
111111110011110011
111111110100101000
111111110101011100
111111110110010000
111111110111000100
000001101001111011
000001101000110100
000001100111101010
000001100110100000
000001100101010100
000001100100000111
000001100010111001
000001100001101010
000001100000011001
000001011111001000
000001011101110101
000001011100100001
000001011011001100
000001011001110110
000001011000100000
000001010111001000
000001010101101111
000001010100010101
000001010010111011
000001010001100000
000001010000000011
000001001110100110
000001001101001001
000001001011101010
000001001010001011
000001001000101100
000001000111001011
000001000101101010
000001000100001001
000001000010100111
000001000001000100
000000111111100001
000000111101111110
000000111100011010
000000111010110110
000000111001010001
000000110111101100
000000110110000111
000000110100100001
000000110010111100
000000110001010110
000000101111101111
000000101110001001
000000101100100011
000000101010111100
000000101001010110
000000100111101111
000000100110001000
000000100100100010
000000100010111011
000000100001010101
000000011111101110
000000011110001000
000000011100100010
000000011010111100
000000011001010110
000000010111110001
000000010110001011
000000010100100110
000000010011000010
000000010001011101
000000001111111001
000000001110010110
000000001100110011
000000001011010000
000000001001101101
000000001000001100
000000000110101010
000000000101001010
000000000011101001
000000000010001010
000000000000101011
111111111111001100
111111111101101110
111111111100010001
111111111010110101
111111111001011001
111111110111111110
111111110110100011
111111110101001010
111111110011110001
111111110010011001
111111110001000010
111111101111101011
111111101110010110
111111101101000001
111111101011101110
111111101010011011
111111101001001001
111111100111111000
111111100110101000
111111100101011001
111111100100001011
111111100010111110
111111100001110001
111111100000100110
111111011111011100
111111011110010011
111111011101001100
111111011100000101
111111011010111111
111111011001111010
111111011000110111
111111010111110101
111111010110110011
111111010101110011
111111010100110100
111111010011110110
111111010010111010
111111010001111110
111111010001000100
111111010000001011
111111001111010011
111111001110011101
111111001101100111
111111001100110011
111111001100000000
111111001011001111
111111001010011110
111111001001101111
111111001001000001
111111001000010100
111111000111101001
111111000110111111
111111000110010110
111111000101101110
111111000101001000
111111000100100011
111111000011111111
111111000011011101
111111000010111011
111111000010011011
111111000001111101
111111000001011111
111111000001000011
111111000000101000
111111000000001111
111110111111110111
111110111111100000
111110111111001010
111110111110110101
111110111110100010
111110111110010000
111110111110000000
111110111101110000
111110111101100010
111110111101010101
111110111101001010
111110111100111111
111110111100110110
111110111100101110
111110111100100111
111110111100100010
111110111100011110
111110111100011010
111110111100011001
111110111100011000
111110111100011000
111110111100011010
111110111100011101
111110111100100001
111110111100100110
111110111100101100
111110111100110011
111110111100111100
111110111101000101
111110111101010000
111110111101011100
111110111101101001
111110111101110111
111110111110000110
111110111110010110
111110111110100111
111110111110111001
111110111111001100
111110111111100000
111110111111110101
111111000000001011
111111000000100010
111111000000111010
111111000001010011
111111000001101101
111111000010000111
111111000010100011
111111000011000000
111111000011011101
111111000011111011
111111000100011010
111111000100111010
111111000101011011
111111000101111100
111111000110011111
111111000111000010
111111000111100101
111111001000001010
111111001000101111
111111001001010101
111111001001111100
111111001010100011
111111001011001011
111111001011110100
111111001100011101
111111001101000111
111111001101110010
111111001110011101
111111001111001000
111111001111110101
111111010000100001
111111010001001111
111111010001111100
111111010010101011
111111010011011001
111111010100001001
111111010100111000
111111010101101000
111111010110011001
111111010111001010
111111010111111011
111111011000101100
111111011001011110
111111011010010001
111111011011000011
111111011011110110
111111011100101001
111111011101011101
111111011110010000
111111011111000100
111111011111111000
111111100000101100
111111100001100001
111111100010010110
111111100011001010
111111100011111111
111111100100110100
111111100101101010
111111100110011111
111111100111010100
111111101000001010
111111101000111111
111111101001110101
111111101010101010
111111101011100000
111111101100010101
111111101101001011
111111101110000000
111111101110110101
111111101111101011
111111110000100000
111111110001010101
111111110010001010
111111110010111111
111111110011110011
111111110100101000
111111110101011100
111111110110010000
111111110111000100;
