15128
15124
15118
15105
150EA
150C7
1509C
1506A
15030
14FEF
14FA5
14F54
14EFC
14E9C
14E34
14DC4
14D4D
14CCE
14C48
14BBA
14B25
14A89
149E4
14939
14886
147CB
1470A
14641
14571
14499
143BA
142D5
141E8
140F4
13FF8
13EF6
13DED
13CDD
13BC7
13AA9
13984
13859
13727
135EF
134B0
1336A
1321E
130CC
12F73
12E14
12CAF
12B43
129D1
1285A
126DC
12558
123CF
1223F
120AA
11F10
11D6F
11BC9
11A1E
1186D
116B7
114FB
1133B
11175
10FAA
10DDA
10C06
10A2C
1084E
1066B
10484
10298
100A7
0FEB2
0FCB9
0FABC
0F8BB
0F6B5
0F4AC
0F29F
0F08E
0EE79
0EC61
0EA45
0E826
0E604
0E3DE
0E1B5
0DF89
0DD5A
0DB27
0D8F3
0D6BB
0D481
0D244
0D005
0CDC3
0CB7F
0C939
0C6F1
0C4A6
0C25A
0C00C
0BDBC
0BB6B
0B918
0B6C3
0B46D
0B216
0AFBE
0AD64
0AB09
0A8AE
0A652
0A3F4
0A197
09F38
09CDA
09A7A
0981B
095BB
0935B
090FB
08E9C
08C3C
089DC
0877D
0851F
082C0
08063
07E06
07BAA
0794E
076F4
0749B
07242
06FEB
06D95
06B41
068EE
0669C
0644C
061FE
05FB2
05D67
05B1E
058D8
05693
05450
05210
04FD2
04D97
04B5E
04927
046F3
044C2
04294
04068
03E3F
03C1A
039F7
037D7
035BB
033A2
0318C
02F7A
02D6B
02B5F
02957
02753
02552
02355
0215C
01F67
01D76
01B89
0199F
017BA
015D9
013FD
01224
01050
00E80
00CB5
00AEE
0092B
0076D
005B4
003FF
0024F
000A4
FFEFD
FFD5B
FFBBE
FFA26
FF893
FF705
FF57C
FF3F7
FF278
FF0FE
FEF89
FEE19
FECAF
FEB49
FE9E9
FE88E
FE738
FE5E8
FE49C
FE357
FE216
FE0DB
FDFA5
FDE75
FDD4A
FDC24
FDB04
FD9EA
FD8D5
FD7C5
FD6BB
FD5B6
FD4B7
FD3BD
FD2C9
FD1DA
FD0F1
FD00D
FCF2F
FCE57
FCD84
FCCB6
FCBEE
FCB2B
FCA6E
FC9B6
FC904
FC857
FC7B0
FC70E
FC672
FC5DB
FC549
FC4BD
FC436
FC3B5
FC339
FC2C2
FC250
FC1E4
FC17D
